{
  "project_info": {
    "project_number": "131505142884",
    "firebase_url": "https://upload-abf61.firebaseio.com",
    "project_id": "upload-abf61",
    "storage_bucket": "upload-abf61.appspot.com"
  },
  "client": [
    {
      "client_info": {
        "mobilesdk_app_id": "1:131505142884:android:44a41edda18703a4",
        "android_client_info": {
          "package_name": "com.example.shubhamverma.upload"
        }
      },
      "oauth_client": [
        {
          "client_id": "131505142884-5n63u80qo745c4n9ldaj8dg3bcdofufs.apps.googleusercontent.com",
          "client_type": 3
        }
      ],
      "api_key": [
        {
          "current_key": "AIzaSyDwSt8ub8IfBltwrGqYlv5-fyfrQx65lUo"
        }
      ],
      "services": {
        "analytics_service": {
          "status": 1
        },
        "appinvite_service": {
          "status": 1,
          "other_platform_oauth_client": []
        },
        "ads_service": {
          "status": 2
        }
      }
    }
  ],
  "configuration_version": "1"
}